%YAML 1.1
%TAG !u! tag:unity3d.com,2011:
--- !u!1045 &1
EditorBuildSettings:
  m_ObjectHideFlags: 0
  serializedVersion: 2
  m_Scenes:
  - enabled: 1
    path: Assets/Scenes/MainMenu.unity
    guid: 2cda990e2423bbf4892e6590ba056729
  - enabled: 1
    path: Assets/Scenes/HowToPlay.unity
    guid: d03d58b457bfa9b4da9830a60840031e
  - enabled: 1
    path: Assets/Scenes/Credits.unity
    guid: de86427a674af4b4cbc9b69860ad2de7
  - enabled: 1
    path: Assets/Scenes/Game.unity
    guid: 084244be7bbf206449956f12a891a20b
  - enabled: 1
    path: Assets/Scenes/TimesUp.unity
    guid: 5be32f695282308459320e33b6c81e33
  - enabled: 1
    path: Assets/Scenes/GameOver.unity
    guid: 665f18ce6926f73498c55ce7c4ef2dc9
  m_configObjects: {}
